<?xml version="1.0" encoding="UTF-8" standalone="no"?><svg xmlns="http://www.w3.org/2000/svg" xmlns:xlink="http://www.w3.org/1999/xlink" contentScriptType="application/ecmascript" contentStyleType="text/css" height="1372px" preserveAspectRatio="none" style="width:656px;height:1372px;" version="1.1" viewBox="0 0 656 1372" width="656px" zoomAndPan="magnify"><defs><filter height="300%" id="fbvn5zmk6v1hb" width="300%" x="-1" y="-1"><feGaussianBlur result="blurOut" stdDeviation="2.0"/><feColorMatrix in="blurOut" result="blurOut2" type="matrix" values="0 0 0 0 0 0 0 0 0 0 0 0 0 0 0 0 0 0 .4 0"/><feOffset dx="4.0" dy="4.0" in="blurOut2" result="blurOut3"/><feBlend in="SourceGraphic" in2="blurOut3" mode="normal"/></filter></defs><g><!--cluster he--><rect fill="#FFFFFF" filter="url(#fbvn5zmk6v1hb)" height="1337" style="stroke: #000000; stroke-width: 1.5;" width="623" x="22" y="24"/><text fill="#000000" font-family="sans-serif" font-size="14" font-weight="bold" lengthAdjust="spacingAndGlyphs" textLength="58" x="304.5" y="38.9951">h-entry</text><text fill="#000000" font-family="sans-serif" font-size="14" font-weight="bold" lengthAdjust="spacingAndGlyphs" textLength="0" x="336" y="55.292"/><text fill="#000000" font-family="sans-serif" font-size="14" font-weight="bold" lengthAdjust="spacingAndGlyphs" textLength="81" x="293" y="71.5889">Post Entry</text><text fill="#000000" font-family="monospace" font-size="14" font-weight="bold" lengthAdjust="spacingAndGlyphs" textLength="232" x="217.5" y="87.8857">&lt;div class="h-entry"&gt;..&lt;/div&gt;</text><!--cluster date--><polygon fill="#FFFFFF" filter="url(#fbvn5zmk6v1hb)" points="90,365,131,365,138,387.2969,577,387.2969,577,535,90,535,90,365" style="stroke: #000000; stroke-width: 1.5;"/><line style="stroke: #000000; stroke-width: 1.5;" x1="90" x2="138" y1="387.2969" y2="387.2969"/><text fill="#000000" font-family="sans-serif" font-size="14" font-weight="bold" lengthAdjust="spacingAndGlyphs" textLength="35" x="94" y="379.9951">date</text><!--cluster syndication--><polygon fill="#FFFFFF" filter="url(#fbvn5zmk6v1hb)" points="54,575,150,575,157,597.2969,613,597.2969,613,729,54,729,54,575" style="stroke: #000000; stroke-width: 1.5;"/><line style="stroke: #000000; stroke-width: 1.5;" x1="54" x2="157" y1="597.2969" y2="597.2969"/><text fill="#000000" font-family="sans-serif" font-size="14" font-weight="bold" lengthAdjust="spacingAndGlyphs" textLength="90" x="58" y="589.9951">syndication</text><!--cluster author--><polygon fill="#FFFFFF" filter="url(#fbvn5zmk6v1hb)" points="164,875,222,875,229,897.2969,587,897.2969,587,1029,164,1029,164,875" style="stroke: #000000; stroke-width: 1.5;"/><line style="stroke: #000000; stroke-width: 1.5;" x1="164" x2="229" y1="897.2969" y2="897.2969"/><text fill="#000000" font-family="sans-serif" font-size="14" font-weight="bold" lengthAdjust="spacingAndGlyphs" textLength="52" x="168" y="889.9951">author</text><!--cluster taxo--><polygon fill="#FFFFFF" filter="url(#fbvn5zmk6v1hb)" points="164,1175,204,1175,211,1197.2969,603,1197.2969,603,1329,164,1329,164,1175" style="stroke: #000000; stroke-width: 1.5;"/><line style="stroke: #000000; stroke-width: 1.5;" x1="164" x2="211" y1="1197.2969" y2="1197.2969"/><text fill="#000000" font-family="sans-serif" font-size="14" font-weight="bold" lengthAdjust="spacingAndGlyphs" textLength="34" x="168" y="1189.9951">taxo</text><!--entity pn--><rect fill="#DA70D6" filter="url(#fbvn5zmk6v1hb)" height="85.1875" style="stroke: #000000; stroke-width: 1.5;" width="228" x="66" y="109.5"/><text fill="#000000" font-family="sans-serif" font-size="14" font-weight="bold" lengthAdjust="spacingAndGlyphs" textLength="59" x="76" y="132.4951">p-name</text><text fill="#000000" font-family="sans-serif" font-size="14" lengthAdjust="spacingAndGlyphs" textLength="0" x="80" y="148.792"/><text fill="#000000" font-family="sans-serif" font-size="14" lengthAdjust="spacingAndGlyphs" textLength="108" x="76" y="165.0889">Title of the post</text><text fill="#000000" font-family="monospace" font-size="14" lengthAdjust="spacingAndGlyphs" textLength="208" x="76" y="181.3857">&lt;h1 class="p-name"&gt;..&lt;/h1&gt;</text><!--entity uu--><rect fill="#7EC0EE" filter="url(#fbvn5zmk6v1hb)" height="85.1875" style="stroke: #000000; stroke-width: 1.5;" width="284" x="38" y="255.5"/><text fill="#000000" font-family="sans-serif" font-size="14" font-weight="bold" lengthAdjust="spacingAndGlyphs" textLength="37" x="48" y="278.4951">u-url</text><text fill="#000000" font-family="sans-serif" font-size="14" lengthAdjust="spacingAndGlyphs" textLength="0" x="52" y="294.792"/><text fill="#000000" font-family="sans-serif" font-size="14" lengthAdjust="spacingAndGlyphs" textLength="146" x="48" y="311.0889">Permalink of the post</text><text fill="#000000" font-family="monospace" font-size="14" lengthAdjust="spacingAndGlyphs" textLength="264" x="48" y="327.3857">&lt;a href=".." class="u-url"&gt;..&lt;/a&gt;</text><!--entity ps--><rect fill="#DA70D6" filter="url(#fbvn5zmk6v1hb)" height="85.1875" style="stroke: #000000; stroke-width: 1.5;" width="268" x="38" y="765.5"/><text fill="#000000" font-family="sans-serif" font-size="14" font-weight="bold" lengthAdjust="spacingAndGlyphs" textLength="88" x="48" y="788.4951">p-summary</text><text fill="#000000" font-family="sans-serif" font-size="14" lengthAdjust="spacingAndGlyphs" textLength="0" x="52" y="804.792"/><text fill="#000000" font-family="sans-serif" font-size="14" lengthAdjust="spacingAndGlyphs" textLength="225" x="48" y="821.0889">Summary/description of the post</text><text fill="#000000" font-family="monospace" font-size="14" lengthAdjust="spacingAndGlyphs" textLength="248" x="48" y="837.3857">&lt;div class="p-summary"&gt;..&lt;/div&gt;</text><!--entity ec--><rect fill="#FFFF00" filter="url(#fbvn5zmk6v1hb)" height="85.1875" style="stroke: #000000; stroke-width: 1.5;" width="268" x="38" y="1065.5"/><text fill="#000000" font-family="sans-serif" font-size="14" font-weight="bold" lengthAdjust="spacingAndGlyphs" textLength="77" x="48" y="1088.4951">e-content</text><text fill="#000000" font-family="sans-serif" font-size="14" lengthAdjust="spacingAndGlyphs" textLength="0" x="52" y="1104.792"/><text fill="#000000" font-family="sans-serif" font-size="14" lengthAdjust="spacingAndGlyphs" textLength="98" x="48" y="1121.0889">Post content (</text><text fill="#000000" font-family="monospace" font-size="14" lengthAdjust="spacingAndGlyphs" textLength="64" x="146" y="1121.0889">.Content</text><text fill="#000000" font-family="sans-serif" font-size="14" lengthAdjust="spacingAndGlyphs" textLength="5" x="210" y="1121.0889">)</text><text fill="#000000" font-family="monospace" font-size="14" lengthAdjust="spacingAndGlyphs" textLength="248" x="48" y="1137.3857">&lt;div class="e-content"&gt;..&lt;/div&gt;</text><!--entity dp--><rect fill="#008000" filter="url(#fbvn5zmk6v1hb)" height="101.4844" style="stroke: #000000; stroke-width: 1.5;" width="420" x="133" y="409.5"/><text fill="#000000" font-family="sans-serif" font-size="14" font-weight="bold" lengthAdjust="spacingAndGlyphs" textLength="99" x="143" y="432.4951">dt-published</text><text fill="#000000" font-family="sans-serif" font-size="14" lengthAdjust="spacingAndGlyphs" textLength="0" x="147" y="448.792"/><text fill="#000000" font-family="sans-serif" font-size="14" lengthAdjust="spacingAndGlyphs" textLength="164" x="143" y="465.0889">Publish date of the post</text><text fill="#000000" font-family="sans-serif" font-size="14" lengthAdjust="spacingAndGlyphs" textLength="355" x="143" y="481.3857">Go Date/time format: "2006-01-02T15:04:05-0700"</text><text fill="#000000" font-family="monospace" font-size="14" lengthAdjust="spacingAndGlyphs" textLength="400" x="143" y="497.6826">&lt;time datetime=".." class="dt-published"&gt;..&lt;/time&gt;</text><!--entity us--><rect fill="#7EC0EE" filter="url(#fbvn5zmk6v1hb)" height="85.1875" style="stroke: #000000; stroke-width: 1.5;" width="492" x="97" y="619.5"/><text fill="#000000" font-family="sans-serif" font-size="14" font-weight="bold" lengthAdjust="spacingAndGlyphs" textLength="106" x="107" y="642.4951">u-syndication</text><text fill="#000000" font-family="sans-serif" font-size="14" lengthAdjust="spacingAndGlyphs" textLength="0" x="111" y="658.792"/><text fill="#000000" font-family="sans-serif" font-size="14" lengthAdjust="spacingAndGlyphs" textLength="230" x="107" y="675.0889">Link where the post is syndicated</text><text fill="#000000" font-family="monospace" font-size="14" lengthAdjust="spacingAndGlyphs" textLength="472" x="107" y="691.3857">&lt;a href=".." class="u-syndication" rel="syndication"&gt;..&lt;/a&gt;</text><!--entity ua--><rect fill="#7EC0EE" filter="url(#fbvn5zmk6v1hb)" height="85.1875" style="stroke: #000000; stroke-width: 1.5;" width="356" x="207" y="919.5"/><text fill="#000000" font-family="sans-serif" font-size="14" font-weight="bold" lengthAdjust="spacingAndGlyphs" textLength="68" x="217" y="942.4951">u-author</text><text fill="#000000" font-family="sans-serif" font-size="14" lengthAdjust="spacingAndGlyphs" textLength="0" x="221" y="958.792"/><text fill="#000000" font-family="sans-serif" font-size="14" lengthAdjust="spacingAndGlyphs" textLength="80" x="217" y="975.0889">Post author</text><text fill="#000000" font-family="monospace" font-size="14" lengthAdjust="spacingAndGlyphs" textLength="336" x="217" y="991.3857">&lt;a href="HOMEPAGE" class="u-author"&gt;..&lt;/a&gt;</text><!--entity pc--><rect fill="#DA70D6" filter="url(#fbvn5zmk6v1hb)" height="85.1875" style="stroke: #000000; stroke-width: 1.5;" width="372" x="207" y="1219.5"/><text fill="#000000" font-family="sans-serif" font-size="14" font-weight="bold" lengthAdjust="spacingAndGlyphs" textLength="86" x="217" y="1242.4951">p-category</text><text fill="#000000" font-family="sans-serif" font-size="14" lengthAdjust="spacingAndGlyphs" textLength="0" x="221" y="1258.792"/><text fill="#000000" font-family="sans-serif" font-size="14" lengthAdjust="spacingAndGlyphs" textLength="187" x="217" y="1275.0889">Tag, category, series name</text><text fill="#000000" font-family="monospace" font-size="14" lengthAdjust="spacingAndGlyphs" textLength="352" x="217" y="1291.3857">&lt;a href="TAGPAGE" class="p-category"&gt;TAG&lt;/a&gt;</text><!--link pn to uu--><!--link uu to date--><!--link date to syndication--><!--link syndication to ps--><!--link ps to author--><!--link author to ec--><!--link ec to taxo--><!--
@startuml
rectangle "**h-entry**\n\nPost Entry\n""<div class="h-entry">..</div>""" as he #white {
  rectangle pn #orchid [
    **p-name**

    Title of the post
    ""<h1 class="p-name">..</h1>""
  ]

  rectangle uu #7ec0ee [
    **u-url**

    Permalink of the post
    ""<a href=".." class="u-url">..</a>""
  ]

  package date {
    rectangle dp #green [
      **dt-published**

      Publish date of the post
      Go Date/time format: "2006-01-02T15:04:05-0700"
      ""<time datetime=".." class="dt-published">..</time>""
    ]
  }

  package syndication {
    rectangle us #7ec0ee [
      **u-syndication**

      Link where the post is syndicated
      ""<a href=".." class="u-syndication" rel="syndication">..</a>""
    ]
  }

  rectangle ps #orchid [
    **p-summary**

    Summary/description of the post
    ""<div class="p-summary">..</div>""
  ]

  package author {
    rectangle ua #7ec0ee [
      **u-author**

      Post author
      ""<a href="HOMEPAGE" class="u-author">..</a>""
    ]
  }

  rectangle ec #yellow [
    **e-content**

    Post content ("".Content"")
    ""<div class="e-content">..</div>""
  ]

  package taxo {
    rectangle pc #orchid [
      **p-category**

      Tag, category, series name
      ""<a href="TAGPAGE" class="p-category">TAG</a>""
    ]
  }

  pn          -[hidden]-> uu         
  uu          -[hidden]-> date       
  date        -[hidden]-> syndication
  syndication -[hidden]-> ps         
  ps          -[hidden]-> author     
  author      -[hidden]-> ec         
  ec          -[hidden]-> taxo       
}
@enduml

PlantUML version 1.2018.04beta2(Unknown compile time)
(GPL source distribution)
Java Runtime: OpenJDK Runtime Environment
JVM: OpenJDK 64-Bit Server VM
Java Version: 1.7.0_65-mockbuild_2014_07_14_06_19-b00
Operating System: Linux
OS Version: 2.6.32-642.6.2.el6.x86_64
Default Encoding: UTF-8
Language: en
Country: US
--></g></svg>